2022-05-24 14:40:25	?	?	Saved module info caches
2022-05-24 14:40:25	?	?	Found 2 module(s) missing file: FieldtypeNumber => /home/antoine/Public/_LUUSE/www.hypernuit/processwire/site/modules/FieldtypeNumber/FieldtypeNumber.module, ProcessPage => /home/antoine/Public/_LUUSE/www.hypernuit/processwire/site/modules/ProcessPage/ProcessPage.module
2022-05-24 14:40:25	guest	http://localhost/processwire/http404/	Saved module info caches
2022-05-24 14:40:25	guest	http://localhost/processwire/http404/	Found 2 module(s) missing file: FieldtypeNumber => /home/antoine/Public/_LUUSE/www.hypernuit/processwire/site/modules/FieldtypeNumber/FieldtypeNumber.module, ProcessPage => /home/antoine/Public/_LUUSE/www.hypernuit/processwire/site/modules/ProcessPage/ProcessPage.module
2022-05-24 14:40:25	guest	http://localhost/processwire/http404/	Installed module 'ProcessRecentPages'
2022-05-24 14:40:25	guest	http://localhost/processwire/http404/	Saved module info caches
2022-05-24 14:40:25	guest	http://localhost/processwire/http404/	Found 2 module(s) missing file: FieldtypeNumber => /home/antoine/Public/_LUUSE/www.hypernuit/processwire/site/modules/FieldtypeNumber/FieldtypeNumber.module, ProcessPage => /home/antoine/Public/_LUUSE/www.hypernuit/processwire/site/modules/ProcessPage/ProcessPage.module
2022-05-24 14:40:25	guest	http://localhost/processwire/http404/	Saved module info caches
2022-05-24 14:40:25	guest	http://localhost/processwire/http404/	Found 2 module(s) missing file: FieldtypeNumber => /home/antoine/Public/_LUUSE/www.hypernuit/processwire/site/modules/FieldtypeNumber/FieldtypeNumber.module, ProcessPage => /home/antoine/Public/_LUUSE/www.hypernuit/processwire/site/modules/ProcessPage/ProcessPage.module
2022-05-24 14:40:25	guest	http://localhost/processwire/http404/	Installed module 'AdminThemeUikit'
2022-05-24 14:40:25	guest	http://localhost/processwire/http404/	Saved module info caches
2022-05-24 14:40:25	guest	http://localhost/processwire/http404/	Found 2 module(s) missing file: FieldtypeNumber => /home/antoine/Public/_LUUSE/www.hypernuit/processwire/site/modules/FieldtypeNumber/FieldtypeNumber.module, ProcessPage => /home/antoine/Public/_LUUSE/www.hypernuit/processwire/site/modules/ProcessPage/ProcessPage.module
2022-05-24 14:40:29	guest	http://localhost/processwire/	Saved module info caches
2022-05-24 14:40:29	guest	http://localhost/processwire/	Found 2 module(s) missing file: FieldtypeNumber => /home/antoine/Public/_LUUSE/www.hypernuit/processwire/site/modules/FieldtypeNumber/FieldtypeNumber.module, ProcessPage => /home/antoine/Public/_LUUSE/www.hypernuit/processwire/site/modules/ProcessPage/ProcessPage.module
2022-05-24 14:40:29	guest	http://localhost/processwire/	Installed module 'ProcessLogger'
2022-05-24 14:40:29	guest	http://localhost/processwire/	Saved module info caches
2022-05-24 14:40:29	guest	http://localhost/processwire/	Found 2 module(s) missing file: FieldtypeNumber => /home/antoine/Public/_LUUSE/www.hypernuit/processwire/site/modules/FieldtypeNumber/FieldtypeNumber.module, ProcessPage => /home/antoine/Public/_LUUSE/www.hypernuit/processwire/site/modules/ProcessPage/ProcessPage.module
2022-05-24 14:40:29	guest	http://localhost/processwire/	Installed module 'InputfieldIcon'
2022-05-24 14:40:29	guest	http://localhost/processwire/	Saved module info caches
2022-05-24 14:40:29	guest	http://localhost/processwire/	Found 2 module(s) missing file: FieldtypeNumber => /home/antoine/Public/_LUUSE/www.hypernuit/processwire/site/modules/FieldtypeNumber/FieldtypeNumber.module, ProcessPage => /home/antoine/Public/_LUUSE/www.hypernuit/processwire/site/modules/ProcessPage/ProcessPage.module
2022-05-24 14:49:42	?	?	Saved module info caches
2022-05-24 14:49:42	?	?	Found 2 module(s) missing file: FieldtypeNumber => /home/antoine/Public/_LUUSE/www.hypernuit/processwire/site/modules/FieldtypeNumber/FieldtypeNumber.module, ProcessPage => /home/antoine/Public/_LUUSE/www.hypernuit/processwire/site/modules/ProcessPage/ProcessPage.module
2022-05-24 14:58:16	?	?	Saved module info caches
2022-05-24 14:58:16	?	?	Found 2 module(s) missing file: FieldtypeNumber => /home/antoine/Public/_LUUSE/www.hypernuit/processwire/site/modules/FieldtypeNumber/FieldtypeNumber.module, ProcessPage => /home/antoine/Public/_LUUSE/www.hypernuit/processwire/site/modules/ProcessPage/ProcessPage.module
2022-05-24 14:58:16	?	?	Saved module info caches
2022-05-24 14:58:16	?	?	Found 2 module(s) missing file: FieldtypeNumber => /home/antoine/Public/_LUUSE/www.hypernuit/processwire/site/modules/FieldtypeNumber/FieldtypeNumber.module, ProcessPage => /home/antoine/Public/_LUUSE/www.hypernuit/processwire/site/modules/ProcessPage/ProcessPage.module
2022-05-31 14:39:40	antoine	http://localhost/processwire/setup/field/edit?id=105	Installed module 'InputfieldPageAutocomplete'
2022-05-31 14:39:40	antoine	http://localhost/processwire/setup/field/edit?id=105	Saved module info caches
2022-06-03 10:04:05	guest	http://localhost/taf/luuse/www.hypernuit/processwire-master/processwire/login/?login=1	Installed module 'ProcessSessionDB'
2022-06-03 10:04:05	guest	http://localhost/taf/luuse/www.hypernuit/processwire-master/processwire/login/?login=1	Installed module 'SessionHandlerDB'
2022-06-03 10:04:07	guest	http://localhost/taf/luuse/www.hypernuit/processwire-master/processwire/login/?login=1	Saved module info caches
2022-06-03 10:08:01	guest	http://localhost/taf/luuse/www.hypernuit/processwire-master/processwire/login/	Installed module 'ProcessSessionDB'
2022-06-03 10:08:01	guest	http://localhost/taf/luuse/www.hypernuit/processwire-master/processwire/login/	Installed module 'SessionHandlerDB'
2022-06-03 10:08:01	guest	http://localhost/taf/luuse/www.hypernuit/processwire-master/processwire/login/	Saved module info caches
2022-06-03 10:14:53	guest	http://localhost/taf/luuse/www.hypernuit/processwire-master/processwire/login/?login=1	Installed module 'ProcessSessionDB'
2022-06-03 10:14:53	guest	http://localhost/taf/luuse/www.hypernuit/processwire-master/processwire/login/?login=1	Installed module 'SessionHandlerDB'
2022-06-03 10:14:53	guest	http://localhost/taf/luuse/www.hypernuit/processwire-master/processwire/login/?login=1	Saved module info caches
2022-06-28 12:52:35	admin	http://localhost/Public/__LUUSE/www.hypernuit/processwire/processwire/module/?reset=1	Saved module info caches
2022-06-28 12:52:49	admin	http://localhost/Public/__LUUSE/www.hypernuit/processwire/processwire/module/	Installed module 'InputfieldColorPicker'
2022-06-28 12:52:49	admin	http://localhost/Public/__LUUSE/www.hypernuit/processwire/processwire/module/	Installed module 'FieldtypeColorPicker'
2022-06-28 12:52:50	admin	http://localhost/Public/__LUUSE/www.hypernuit/processwire/processwire/module/	Saved module info caches
2022-08-23 13:26:43	admin	http://localhost/Public/__LUUSE/www.hypernuit/processwire/processwire/module/	Installed module 'InputfieldRepeater'
2022-08-23 13:26:43	admin	http://localhost/Public/__LUUSE/www.hypernuit/processwire/processwire/module/	Installed module 'FieldtypeRepeater'
2022-08-23 13:26:43	admin	http://localhost/Public/__LUUSE/www.hypernuit/processwire/processwire/module/	Saved module info caches
