<?xml version="1.0" encoding="UTF-8" standalone="no"?>
<!-- Generator: Adobe Illustrator 19.0.0, SVG Export Plug-In . SVG Version: 6.00 Build 0)  -->

<svg
   version="1.1"
   id="Layer_1"
   x="0px"
   y="0px"
   viewBox="0 0 512 512"
   style="enable-background:new 0 0 512 512;"
   xml:space="preserve"
   sodipodi:docname="play.svg"
   inkscape:version="1.2.1 (9c6d41e410, 2022-07-14, custom)"
   xmlns:inkscape="http://www.inkscape.org/namespaces/inkscape"
   xmlns:sodipodi="http://sodipodi.sourceforge.net/DTD/sodipodi-0.dtd"
   xmlns="http://www.w3.org/2000/svg"
   xmlns:svg="http://www.w3.org/2000/svg"><defs
   id="defs201" /><sodipodi:namedview
   id="namedview199"
   pagecolor="#ffffff"
   bordercolor="#cccccc"
   borderopacity="1"
   inkscape:showpageshadow="0"
   inkscape:pageopacity="1"
   inkscape:pagecheckerboard="0"
   inkscape:deskcolor="#d1d1d1"
   showgrid="false"
   inkscape:zoom="0.73045783"
   inkscape:cx="-79.402257"
   inkscape:cy="279.2769"
   inkscape:window-width="1920"
   inkscape:window-height="1031"
   inkscape:window-x="0"
   inkscape:window-y="24"
   inkscape:window-maximized="1"
   inkscape:current-layer="g164" />
<g
   id="g166">
	<g
   id="g164">
		<path
   d="m 348.238,284.418 -120.294,69.507 c -10.148,5.864 -22.661,5.874 -32.826,0.009 -10.158,-5.862 -16.415,-16.699 -16.415,-28.426 V 186.493 c 0,-11.728 6.258,-22.564 16.415,-28.426 5.076,-2.93 10.741,-4.395 16.406,-4.395 5.67,0 11.341,1.468 16.42,4.402 l 120.295,69.507 c 10.149,5.864 16.4,16.696 16.4,28.418 0,11.723 -6.252,22.554 -16.401,28.419 z"
   id="path162"
   sodipodi:nodetypes="cccsscsccsc"
   style="fill:#ffffff" />
	</g>
</g>
<g
   id="g168">
</g>
<g
   id="g170">
</g>
<g
   id="g172">
</g>
<g
   id="g174">
</g>
<g
   id="g176">
</g>
<g
   id="g178">
</g>
<g
   id="g180">
</g>
<g
   id="g182">
</g>
<g
   id="g184">
</g>
<g
   id="g186">
</g>
<g
   id="g188">
</g>
<g
   id="g190">
</g>
<g
   id="g192">
</g>
<g
   id="g194">
</g>
<g
   id="g196">
</g>
</svg>
